n	EX	Anzahl	sdv	EXsdv	Anzahl	kleiner	größer	EX10%	Anzahl	EXboxplot	Q025	Q050	Q075	a	b	min	max
2500.0	0.6469155	2.0	0.014791500000000013	0.6469155	2.0	0.0	0.0	0.632124	1.0	0.632124	0.632124	0.632124	0.632124	0.632124	0.632124	0.632124	0.661707	
5000.0	1.7200769999999999	2.0	0.26293200000000005	1.7200769999999999	2.0	0.0	0.0	1.457145	1.0	1.457145	1.457145	1.457145	1.457145	1.457145	1.457145	1.457145	1.983009	
10000.0	3.0451525000000004	2.0	0.0031695000000000473	3.0451525000000004	2.0	0.0	0.0	3.041983	1.0	3.041983	3.041983	3.041983	3.041983	3.041983	3.041983	3.041983	3.048322	
20000.0	8.0876535	2.0	0.7436664999999998	8.0876535	2.0	0.0	0.0	7.343987	1.0	7.343987	7.343987	7.343987	7.343987	7.343987	7.343987	7.343987	8.83132	
40000.0	14.945925500000001	2.0	0.6174834999999996	15.563409	1.0	1.0	0.0	14.328442	1.0	14.328442	14.328442	14.328442	14.328442	14.328442	14.328442	14.328442	15.563409	
80000.0	45.905806	2.0	6.844536999999999	45.905806	2.0	0.0	0.0	39.061269	1.0	39.061269	39.061269	39.061269	39.061269	39.061269	39.061269	39.061269	52.750343	
160000.0	78.443279	2.0	1.8455060000000003	78.443279	2.0	0.0	0.0	76.597773	1.0	76.597773	76.597773	76.597773	76.597773	76.597773	76.597773	76.597773	80.288785	
